^C:\USERS\GAMER\GIT REPOS\TICTACTOE\TICTACTOE\MAIN.CPP
C:\USERS\GAMER\GIT REPOS\TICTACTOE\TICTACTOE\DEBUG\VC142.PDB
C:\USERS\GAMER\GIT REPOS\TICTACTOE\TICTACTOE\DEBUG\VC142.IDB
C:\USERS\GAMER\GIT REPOS\TICTACTOE\TICTACTOE\DEBUG\MAIN.OBJ
